{
   "total_count":243,
   "incomplete_results":false,
   "items":[
      {
         "id":95875527,
         "name":"ARTetris",
         "full_name":"exyte/ARTetris",
         "owner":{
            "login":"exyte",
            "id":10406525,
            "avatar_url":"https://avatars2.githubusercontent.com/u/10406525?v=4",
            "gravatar_id":"",
            "url":"https://api.github.com/users/exyte",
            "html_url":"https://github.com/exyte",
            "followers_url":"https://api.github.com/users/exyte/followers",
            "following_url":"https://api.github.com/users/exyte/following{/other_user}",
            "gists_url":"https://api.github.com/users/exyte/gists{/gist_id}",
            "starred_url":"https://api.github.com/users/exyte/starred{/owner}{/repo}",
            "subscriptions_url":"https://api.github.com/users/exyte/subscriptions",
            "organizations_url":"https://api.github.com/users/exyte/orgs",
            "repos_url":"https://api.github.com/users/exyte/repos",
            "events_url":"https://api.github.com/users/exyte/events{/privacy}",
            "received_events_url":"https://api.github.com/users/exyte/received_events",
            "type":"Organization",
            "site_admin":false
         },
         "private":false,
         "html_url":"https://github.com/exyte/ARTetris",
         "description":"Augmented Reality Tetris made with ARKit and SceneKit",
         "fork":false,
         "url":"https://api.github.com/repos/exyte/ARTetris",
         "forks_url":"https://api.github.com/repos/exyte/ARTetris/forks",
         "keys_url":"https://api.github.com/repos/exyte/ARTetris/keys{/key_id}",
         "collaborators_url":"https://api.github.com/repos/exyte/ARTetris/collaborators{/collaborator}",
         "teams_url":"https://api.github.com/repos/exyte/ARTetris/teams",
         "hooks_url":"https://api.github.com/repos/exyte/ARTetris/hooks",
         "issue_events_url":"https://api.github.com/repos/exyte/ARTetris/issues/events{/number}",
         "events_url":"https://api.github.com/repos/exyte/ARTetris/events",
         "assignees_url":"https://api.github.com/repos/exyte/ARTetris/assignees{/user}",
         "branches_url":"https://api.github.com/repos/exyte/ARTetris/branches{/branch}",
         "tags_url":"https://api.github.com/repos/exyte/ARTetris/tags",
         "blobs_url":"https://api.github.com/repos/exyte/ARTetris/git/blobs{/sha}",
         "git_tags_url":"https://api.github.com/repos/exyte/ARTetris/git/tags{/sha}",
         "git_refs_url":"https://api.github.com/repos/exyte/ARTetris/git/refs{/sha}",
         "trees_url":"https://api.github.com/repos/exyte/ARTetris/git/trees{/sha}",
         "statuses_url":"https://api.github.com/repos/exyte/ARTetris/statuses/{sha}",
         "languages_url":"https://api.github.com/repos/exyte/ARTetris/languages",
         "stargazers_url":"https://api.github.com/repos/exyte/ARTetris/stargazers",
         "contributors_url":"https://api.github.com/repos/exyte/ARTetris/contributors",
         "subscribers_url":"https://api.github.com/repos/exyte/ARTetris/subscribers",
         "subscription_url":"https://api.github.com/repos/exyte/ARTetris/subscription",
         "commits_url":"https://api.github.com/repos/exyte/ARTetris/commits{/sha}",
         "git_commits_url":"https://api.github.com/repos/exyte/ARTetris/git/commits{/sha}",
         "comments_url":"https://api.github.com/repos/exyte/ARTetris/comments{/number}",
         "issue_comment_url":"https://api.github.com/repos/exyte/ARTetris/issues/comments{/number}",
         "contents_url":"https://api.github.com/repos/exyte/ARTetris/contents/{+path}",
         "compare_url":"https://api.github.com/repos/exyte/ARTetris/compare/{base}...{head}",
         "merges_url":"https://api.github.com/repos/exyte/ARTetris/merges",
         "archive_url":"https://api.github.com/repos/exyte/ARTetris/{archive_format}{/ref}",
         "downloads_url":"https://api.github.com/repos/exyte/ARTetris/downloads",
         "issues_url":"https://api.github.com/repos/exyte/ARTetris/issues{/number}",
         "pulls_url":"https://api.github.com/repos/exyte/ARTetris/pulls{/number}",
         "milestones_url":"https://api.github.com/repos/exyte/ARTetris/milestones{/number}",
         "notifications_url":"https://api.github.com/repos/exyte/ARTetris/notifications{?since,all,participating}",
         "labels_url":"https://api.github.com/repos/exyte/ARTetris/labels{/name}",
         "releases_url":"https://api.github.com/repos/exyte/ARTetris/releases{/id}",
         "deployments_url":"https://api.github.com/repos/exyte/ARTetris/deployments",
         "created_at":"2017-06-30T10:02:46Z",
         "updated_at":"2018-04-16T08:22:01Z",
         "pushed_at":"2017-11-15T21:46:49Z",
         "git_url":"git://github.com/exyte/ARTetris.git",
         "ssh_url":"git@github.com:exyte/ARTetris.git",
         "clone_url":"https://github.com/exyte/ARTetris.git",
         "svn_url":"https://github.com/exyte/ARTetris",
         "homepage":null,
         "size":28,
         "stargazers_count":1284,
         "watchers_count":1284,
         "language":"Swift",
         "has_issues":true,
         "has_projects":true,
         "has_downloads":true,
         "has_wiki":true,
         "has_pages":false,
         "forks_count":135,
         "mirror_url":null,
         "archived":false,
         "open_issues_count":1,
         "license":{
            "key":"mit",
            "name":"MIT License",
            "spdx_id":"MIT",
            "url":"https://api.github.com/licenses/mit"
         },
         "forks":135,
         "open_issues":1,
         "watchers":1284,
         "default_branch":"master",
         "score":102.67006
      },
      {
         "id":21679340,
         "name":"swiftris",
         "full_name":"Bloc/swiftris",
         "owner":{
            "login":"Bloc",
            "id":1441485,
            "avatar_url":"https://avatars1.githubusercontent.com/u/1441485?v=4",
            "gravatar_id":"",
            "url":"https://api.github.com/users/Bloc",
            "html_url":"https://github.com/Bloc",
            "followers_url":"https://api.github.com/users/Bloc/followers",
            "following_url":"https://api.github.com/users/Bloc/following{/other_user}",
            "gists_url":"https://api.github.com/users/Bloc/gists{/gist_id}",
            "starred_url":"https://api.github.com/users/Bloc/starred{/owner}{/repo}",
            "subscriptions_url":"https://api.github.com/users/Bloc/subscriptions",
            "organizations_url":"https://api.github.com/users/Bloc/orgs",
            "repos_url":"https://api.github.com/users/Bloc/repos",
            "events_url":"https://api.github.com/users/Bloc/events{/privacy}",
            "received_events_url":"https://api.github.com/users/Bloc/received_events",
            "type":"Organization",
            "site_admin":false
         },
         "private":false,
         "html_url":"https://github.com/Bloc/swiftris",
         "description":"A Tetris clone made in Swift.",
         "fork":false,
         "url":"https://api.github.com/repos/Bloc/swiftris",
         "forks_url":"https://api.github.com/repos/Bloc/swiftris/forks",
         "keys_url":"https://api.github.com/repos/Bloc/swiftris/keys{/key_id}",
         "collaborators_url":"https://api.github.com/repos/Bloc/swiftris/collaborators{/collaborator}",
         "teams_url":"https://api.github.com/repos/Bloc/swiftris/teams",
         "hooks_url":"https://api.github.com/repos/Bloc/swiftris/hooks",
         "issue_events_url":"https://api.github.com/repos/Bloc/swiftris/issues/events{/number}",
         "events_url":"https://api.github.com/repos/Bloc/swiftris/events",
         "assignees_url":"https://api.github.com/repos/Bloc/swiftris/assignees{/user}",
         "branches_url":"https://api.github.com/repos/Bloc/swiftris/branches{/branch}",
         "tags_url":"https://api.github.com/repos/Bloc/swiftris/tags",
         "blobs_url":"https://api.github.com/repos/Bloc/swiftris/git/blobs{/sha}",
         "git_tags_url":"https://api.github.com/repos/Bloc/swiftris/git/tags{/sha}",
         "git_refs_url":"https://api.github.com/repos/Bloc/swiftris/git/refs{/sha}",
         "trees_url":"https://api.github.com/repos/Bloc/swiftris/git/trees{/sha}",
         "statuses_url":"https://api.github.com/repos/Bloc/swiftris/statuses/{sha}",
         "languages_url":"https://api.github.com/repos/Bloc/swiftris/languages",
         "stargazers_url":"https://api.github.com/repos/Bloc/swiftris/stargazers",
         "contributors_url":"https://api.github.com/repos/Bloc/swiftris/contributors",
         "subscribers_url":"https://api.github.com/repos/Bloc/swiftris/subscribers",
         "subscription_url":"https://api.github.com/repos/Bloc/swiftris/subscription",
         "commits_url":"https://api.github.com/repos/Bloc/swiftris/commits{/sha}",
         "git_commits_url":"https://api.github.com/repos/Bloc/swiftris/git/commits{/sha}",
         "comments_url":"https://api.github.com/repos/Bloc/swiftris/comments{/number}",
         "issue_comment_url":"https://api.github.com/repos/Bloc/swiftris/issues/comments{/number}",
         "contents_url":"https://api.github.com/repos/Bloc/swiftris/contents/{+path}",
         "compare_url":"https://api.github.com/repos/Bloc/swiftris/compare/{base}...{head}",
         "merges_url":"https://api.github.com/repos/Bloc/swiftris/merges",
         "archive_url":"https://api.github.com/repos/Bloc/swiftris/{archive_format}{/ref}",
         "downloads_url":"https://api.github.com/repos/Bloc/swiftris/downloads",
         "issues_url":"https://api.github.com/repos/Bloc/swiftris/issues{/number}",
         "pulls_url":"https://api.github.com/repos/Bloc/swiftris/pulls{/number}",
         "milestones_url":"https://api.github.com/repos/Bloc/swiftris/milestones{/number}",
         "notifications_url":"https://api.github.com/repos/Bloc/swiftris/notifications{?since,all,participating}",
         "labels_url":"https://api.github.com/repos/Bloc/swiftris/labels{/name}",
         "releases_url":"https://api.github.com/repos/Bloc/swiftris/releases{/id}",
         "deployments_url":"https://api.github.com/repos/Bloc/swiftris/deployments",
         "created_at":"2014-07-10T04:32:30Z",
         "updated_at":"2018-04-17T11:07:54Z",
         "pushed_at":"2016-12-06T03:07:50Z",
         "git_url":"git://github.com/Bloc/swiftris.git",
         "ssh_url":"git@github.com:Bloc/swiftris.git",
         "clone_url":"https://github.com/Bloc/swiftris.git",
         "svn_url":"https://github.com/Bloc/swiftris",
         "homepage":null,
         "size":12065,
         "stargazers_count":178,
         "watchers_count":178,
         "language":"Swift",
         "has_issues":true,
         "has_projects":true,
         "has_downloads":true,
         "has_wiki":true,
         "has_pages":false,
         "forks_count":88,
         "mirror_url":null,
         "archived":false,
         "open_issues_count":3,
         "license":{
            "key":"mit",
            "name":"MIT License",
            "spdx_id":"MIT",
            "url":"https://api.github.com/licenses/mit"
         },
         "forks":88,
         "open_issues":3,
         "watchers":178,
         "default_branch":"master",
         "score":95.751434
      },
      {
         "id":58533780,
         "name":"Tetris",
         "full_name":"TaoaXu/Tetris",
         "owner":{
            "login":"TaoaXu",
            "id":12456736,
            "avatar_url":"https://avatars0.githubusercontent.com/u/12456736?v=4",
            "gravatar_id":"",
            "url":"https://api.github.com/users/TaoaXu",
            "html_url":"https://github.com/TaoaXu",
            "followers_url":"https://api.github.com/users/TaoaXu/followers",
            "following_url":"https://api.github.com/users/TaoaXu/following{/other_user}",
            "gists_url":"https://api.github.com/users/TaoaXu/gists{/gist_id}",
            "starred_url":"https://api.github.com/users/TaoaXu/starred{/owner}{/repo}",
            "subscriptions_url":"https://api.github.com/users/TaoaXu/subscriptions",
            "organizations_url":"https://api.github.com/users/TaoaXu/orgs",
            "repos_url":"https://api.github.com/users/TaoaXu/repos",
            "events_url":"https://api.github.com/users/TaoaXu/events{/privacy}",
            "received_events_url":"https://api.github.com/users/TaoaXu/received_events",
            "type":"User",
            "site_admin":false
         },
         "private":false,
         "html_url":"https://github.com/TaoaXu/Tetris",
         "description":"俄罗斯方块小游戏Swift实现",
         "fork":false,
         "url":"https://api.github.com/repos/TaoaXu/Tetris",
         "forks_url":"https://api.github.com/repos/TaoaXu/Tetris/forks",
         "keys_url":"https://api.github.com/repos/TaoaXu/Tetris/keys{/key_id}",
         "collaborators_url":"https://api.github.com/repos/TaoaXu/Tetris/collaborators{/collaborator}",
         "teams_url":"https://api.github.com/repos/TaoaXu/Tetris/teams",
         "hooks_url":"https://api.github.com/repos/TaoaXu/Tetris/hooks",
         "issue_events_url":"https://api.github.com/repos/TaoaXu/Tetris/issues/events{/number}",
         "events_url":"https://api.github.com/repos/TaoaXu/Tetris/events",
         "assignees_url":"https://api.github.com/repos/TaoaXu/Tetris/assignees{/user}",
         "branches_url":"https://api.github.com/repos/TaoaXu/Tetris/branches{/branch}",
         "tags_url":"https://api.github.com/repos/TaoaXu/Tetris/tags",
         "blobs_url":"https://api.github.com/repos/TaoaXu/Tetris/git/blobs{/sha}",
         "git_tags_url":"https://api.github.com/repos/TaoaXu/Tetris/git/tags{/sha}",
         "git_refs_url":"https://api.github.com/repos/TaoaXu/Tetris/git/refs{/sha}",
         "trees_url":"https://api.github.com/repos/TaoaXu/Tetris/git/trees{/sha}",
         "statuses_url":"https://api.github.com/repos/TaoaXu/Tetris/statuses/{sha}",
         "languages_url":"https://api.github.com/repos/TaoaXu/Tetris/languages",
         "stargazers_url":"https://api.github.com/repos/TaoaXu/Tetris/stargazers",
         "contributors_url":"https://api.github.com/repos/TaoaXu/Tetris/contributors",
         "subscribers_url":"https://api.github.com/repos/TaoaXu/Tetris/subscribers",
         "subscription_url":"https://api.github.com/repos/TaoaXu/Tetris/subscription",
         "commits_url":"https://api.github.com/repos/TaoaXu/Tetris/commits{/sha}",
         "git_commits_url":"https://api.github.com/repos/TaoaXu/Tetris/git/commits{/sha}",
         "comments_url":"https://api.github.com/repos/TaoaXu/Tetris/comments{/number}",
         "issue_comment_url":"https://api.github.com/repos/TaoaXu/Tetris/issues/comments{/number}",
         "contents_url":"https://api.github.com/repos/TaoaXu/Tetris/contents/{+path}",
         "compare_url":"https://api.github.com/repos/TaoaXu/Tetris/compare/{base}...{head}",
         "merges_url":"https://api.github.com/repos/TaoaXu/Tetris/merges",
         "archive_url":"https://api.github.com/repos/TaoaXu/Tetris/{archive_format}{/ref}",
         "downloads_url":"https://api.github.com/repos/TaoaXu/Tetris/downloads",
         "issues_url":"https://api.github.com/repos/TaoaXu/Tetris/issues{/number}",
         "pulls_url":"https://api.github.com/repos/TaoaXu/Tetris/pulls{/number}",
         "milestones_url":"https://api.github.com/repos/TaoaXu/Tetris/milestones{/number}",
         "notifications_url":"https://api.github.com/repos/TaoaXu/Tetris/notifications{?since,all,participating}",
         "labels_url":"https://api.github.com/repos/TaoaXu/Tetris/labels{/name}",
         "releases_url":"https://api.github.com/repos/TaoaXu/Tetris/releases{/id}",
         "deployments_url":"https://api.github.com/repos/TaoaXu/Tetris/deployments",
         "created_at":"2016-05-11T09:59:10Z",
         "updated_at":"2018-01-12T13:35:21Z",
         "pushed_at":"2016-05-12T01:18:20Z",
         "git_url":"git://github.com/TaoaXu/Tetris.git",
         "ssh_url":"git@github.com:TaoaXu/Tetris.git",
         "clone_url":"https://github.com/TaoaXu/Tetris.git",
         "svn_url":"https://github.com/TaoaXu/Tetris",
         "homepage":null,
         "size":21,
         "stargazers_count":50,
         "watchers_count":50,
         "language":"Swift",
         "has_issues":true,
         "has_projects":true,
         "has_downloads":true,
         "has_wiki":true,
         "has_pages":false,
         "forks_count":12,
         "mirror_url":null,
         "archived":false,
         "open_issues_count":1,
         "license":null,
         "forks":12,
         "open_issues":1,
         "watchers":50,
         "default_branch":"master",
         "score":57.128494
      },
      {
         "id":48499434,
         "name":"Swiftris",
         "full_name":"hiddenviewer/Swiftris",
         "owner":{
            "login":"hiddenviewer",
            "id":6849050,
            "avatar_url":"https://avatars0.githubusercontent.com/u/6849050?v=4",
            "gravatar_id":"",
            "url":"https://api.github.com/users/hiddenviewer",
            "html_url":"https://github.com/hiddenviewer",
            "followers_url":"https://api.github.com/users/hiddenviewer/followers",
            "following_url":"https://api.github.com/users/hiddenviewer/following{/other_user}",
            "gists_url":"https://api.github.com/users/hiddenviewer/gists{/gist_id}",
            "starred_url":"https://api.github.com/users/hiddenviewer/starred{/owner}{/repo}",
            "subscriptions_url":"https://api.github.com/users/hiddenviewer/subscriptions",
            "organizations_url":"https://api.github.com/users/hiddenviewer/orgs",
            "repos_url":"https://api.github.com/users/hiddenviewer/repos",
            "events_url":"https://api.github.com/users/hiddenviewer/events{/privacy}",
            "received_events_url":"https://api.github.com/users/hiddenviewer/received_events",
            "type":"User",
            "site_admin":false
         },
         "private":false,
         "html_url":"https://github.com/hiddenviewer/Swiftris",
         "description":"Swift version Tetris game.",
         "fork":false,
         "url":"https://api.github.com/repos/hiddenviewer/Swiftris",
         "forks_url":"https://api.github.com/repos/hiddenviewer/Swiftris/forks",
         "keys_url":"https://api.github.com/repos/hiddenviewer/Swiftris/keys{/key_id}",
         "collaborators_url":"https://api.github.com/repos/hiddenviewer/Swiftris/collaborators{/collaborator}",
         "teams_url":"https://api.github.com/repos/hiddenviewer/Swiftris/teams",
         "hooks_url":"https://api.github.com/repos/hiddenviewer/Swiftris/hooks",
         "issue_events_url":"https://api.github.com/repos/hiddenviewer/Swiftris/issues/events{/number}",
         "events_url":"https://api.github.com/repos/hiddenviewer/Swiftris/events",
         "assignees_url":"https://api.github.com/repos/hiddenviewer/Swiftris/assignees{/user}",
         "branches_url":"https://api.github.com/repos/hiddenviewer/Swiftris/branches{/branch}",
         "tags_url":"https://api.github.com/repos/hiddenviewer/Swiftris/tags",
         "blobs_url":"https://api.github.com/repos/hiddenviewer/Swiftris/git/blobs{/sha}",
         "git_tags_url":"https://api.github.com/repos/hiddenviewer/Swiftris/git/tags{/sha}",
         "git_refs_url":"https://api.github.com/repos/hiddenviewer/Swiftris/git/refs{/sha}",
         "trees_url":"https://api.github.com/repos/hiddenviewer/Swiftris/git/trees{/sha}",
         "statuses_url":"https://api.github.com/repos/hiddenviewer/Swiftris/statuses/{sha}",
         "languages_url":"https://api.github.com/repos/hiddenviewer/Swiftris/languages",
         "stargazers_url":"https://api.github.com/repos/hiddenviewer/Swiftris/stargazers",
         "contributors_url":"https://api.github.com/repos/hiddenviewer/Swiftris/contributors",
         "subscribers_url":"https://api.github.com/repos/hiddenviewer/Swiftris/subscribers",
         "subscription_url":"https://api.github.com/repos/hiddenviewer/Swiftris/subscription",
         "commits_url":"https://api.github.com/repos/hiddenviewer/Swiftris/commits{/sha}",
         "git_commits_url":"https://api.github.com/repos/hiddenviewer/Swiftris/git/commits{/sha}",
         "comments_url":"https://api.github.com/repos/hiddenviewer/Swiftris/comments{/number}",
         "issue_comment_url":"https://api.github.com/repos/hiddenviewer/Swiftris/issues/comments{/number}",
         "contents_url":"https://api.github.com/repos/hiddenviewer/Swiftris/contents/{+path}",
         "compare_url":"https://api.github.com/repos/hiddenviewer/Swiftris/compare/{base}...{head}",
         "merges_url":"https://api.github.com/repos/hiddenviewer/Swiftris/merges",
         "archive_url":"https://api.github.com/repos/hiddenviewer/Swiftris/{archive_format}{/ref}",
         "downloads_url":"https://api.github.com/repos/hiddenviewer/Swiftris/downloads",
         "issues_url":"https://api.github.com/repos/hiddenviewer/Swiftris/issues{/number}",
         "pulls_url":"https://api.github.com/repos/hiddenviewer/Swiftris/pulls{/number}",
         "milestones_url":"https://api.github.com/repos/hiddenviewer/Swiftris/milestones{/number}",
         "notifications_url":"https://api.github.com/repos/hiddenviewer/Swiftris/notifications{?since,all,participating}",
         "labels_url":"https://api.github.com/repos/hiddenviewer/Swiftris/labels{/name}",
         "releases_url":"https://api.github.com/repos/hiddenviewer/Swiftris/releases{/id}",
         "deployments_url":"https://api.github.com/repos/hiddenviewer/Swiftris/deployments",
         "created_at":"2015-12-23T16:10:27Z",
         "updated_at":"2018-03-26T04:27:28Z",
         "pushed_at":"2017-07-24T15:12:20Z",
         "git_url":"git://github.com/hiddenviewer/Swiftris.git",
         "ssh_url":"git@github.com:hiddenviewer/Swiftris.git",
         "clone_url":"https://github.com/hiddenviewer/Swiftris.git",
         "svn_url":"https://github.com/hiddenviewer/Swiftris",
         "homepage":null,
         "size":578,
         "stargazers_count":20,
         "watchers_count":20,
         "language":"Swift",
         "has_issues":true,
         "has_projects":true,
         "has_downloads":true,
         "has_wiki":true,
         "has_pages":false,
         "forks_count":4,
         "mirror_url":null,
         "archived":false,
         "open_issues_count":0,
         "license":{
            "key":"mit",
            "name":"MIT License",
            "spdx_id":"MIT",
            "url":"https://api.github.com/licenses/mit"
         },
         "forks":4,
         "open_issues":0,
         "watchers":20,
         "default_branch":"master",
         "score":50.795883
      },
      {
         "id":74176016,
         "name":"Tetromino",
         "full_name":"Stitch7/Tetromino",
         "owner":{
            "login":"Stitch7",
            "id":8287846,
            "avatar_url":"https://avatars3.githubusercontent.com/u/8287846?v=4",
            "gravatar_id":"",
            "url":"https://api.github.com/users/Stitch7",
            "html_url":"https://github.com/Stitch7",
            "followers_url":"https://api.github.com/users/Stitch7/followers",
            "following_url":"https://api.github.com/users/Stitch7/following{/other_user}",
            "gists_url":"https://api.github.com/users/Stitch7/gists{/gist_id}",
            "starred_url":"https://api.github.com/users/Stitch7/starred{/owner}{/repo}",
            "subscriptions_url":"https://api.github.com/users/Stitch7/subscriptions",
            "organizations_url":"https://api.github.com/users/Stitch7/orgs",
            "repos_url":"https://api.github.com/users/Stitch7/repos",
            "events_url":"https://api.github.com/users/Stitch7/events{/privacy}",
            "received_events_url":"https://api.github.com/users/Stitch7/received_events",
            "type":"User",
            "site_admin":false
         },
         "private":false,
         "html_url":"https://github.com/Stitch7/Tetromino",
         "description":"One of my favorite games implemented for iOS, macOS + CLI",
         "fork":false,
         "url":"https://api.github.com/repos/Stitch7/Tetromino",
         "forks_url":"https://api.github.com/repos/Stitch7/Tetromino/forks",
         "keys_url":"https://api.github.com/repos/Stitch7/Tetromino/keys{/key_id}",
         "collaborators_url":"https://api.github.com/repos/Stitch7/Tetromino/collaborators{/collaborator}",
         "teams_url":"https://api.github.com/repos/Stitch7/Tetromino/teams",
         "hooks_url":"https://api.github.com/repos/Stitch7/Tetromino/hooks",
         "issue_events_url":"https://api.github.com/repos/Stitch7/Tetromino/issues/events{/number}",
         "events_url":"https://api.github.com/repos/Stitch7/Tetromino/events",
         "assignees_url":"https://api.github.com/repos/Stitch7/Tetromino/assignees{/user}",
         "branches_url":"https://api.github.com/repos/Stitch7/Tetromino/branches{/branch}",
         "tags_url":"https://api.github.com/repos/Stitch7/Tetromino/tags",
         "blobs_url":"https://api.github.com/repos/Stitch7/Tetromino/git/blobs{/sha}",
         "git_tags_url":"https://api.github.com/repos/Stitch7/Tetromino/git/tags{/sha}",
         "git_refs_url":"https://api.github.com/repos/Stitch7/Tetromino/git/refs{/sha}",
         "trees_url":"https://api.github.com/repos/Stitch7/Tetromino/git/trees{/sha}",
         "statuses_url":"https://api.github.com/repos/Stitch7/Tetromino/statuses/{sha}",
         "languages_url":"https://api.github.com/repos/Stitch7/Tetromino/languages",
         "stargazers_url":"https://api.github.com/repos/Stitch7/Tetromino/stargazers",
         "contributors_url":"https://api.github.com/repos/Stitch7/Tetromino/contributors",
         "subscribers_url":"https://api.github.com/repos/Stitch7/Tetromino/subscribers",
         "subscription_url":"https://api.github.com/repos/Stitch7/Tetromino/subscription",
         "commits_url":"https://api.github.com/repos/Stitch7/Tetromino/commits{/sha}",
         "git_commits_url":"https://api.github.com/repos/Stitch7/Tetromino/git/commits{/sha}",
         "comments_url":"https://api.github.com/repos/Stitch7/Tetromino/comments{/number}",
         "issue_comment_url":"https://api.github.com/repos/Stitch7/Tetromino/issues/comments{/number}",
         "contents_url":"https://api.github.com/repos/Stitch7/Tetromino/contents/{+path}",
         "compare_url":"https://api.github.com/repos/Stitch7/Tetromino/compare/{base}...{head}",
         "merges_url":"https://api.github.com/repos/Stitch7/Tetromino/merges",
         "archive_url":"https://api.github.com/repos/Stitch7/Tetromino/{archive_format}{/ref}",
         "downloads_url":"https://api.github.com/repos/Stitch7/Tetromino/downloads",
         "issues_url":"https://api.github.com/repos/Stitch7/Tetromino/issues{/number}",
         "pulls_url":"https://api.github.com/repos/Stitch7/Tetromino/pulls{/number}",
         "milestones_url":"https://api.github.com/repos/Stitch7/Tetromino/milestones{/number}",
         "notifications_url":"https://api.github.com/repos/Stitch7/Tetromino/notifications{?since,all,participating}",
         "labels_url":"https://api.github.com/repos/Stitch7/Tetromino/labels{/name}",
         "releases_url":"https://api.github.com/repos/Stitch7/Tetromino/releases{/id}",
         "deployments_url":"https://api.github.com/repos/Stitch7/Tetromino/deployments",
         "created_at":"2016-11-19T00:02:48Z",
         "updated_at":"2018-03-05T10:04:24Z",
         "pushed_at":"2016-12-13T17:17:22Z",
         "git_url":"git://github.com/Stitch7/Tetromino.git",
         "ssh_url":"git@github.com:Stitch7/Tetromino.git",
         "clone_url":"https://github.com/Stitch7/Tetromino.git",
         "svn_url":"https://github.com/Stitch7/Tetromino",
         "homepage":"",
         "size":3092,
         "stargazers_count":16,
         "watchers_count":16,
         "language":"Swift",
         "has_issues":true,
         "has_projects":true,
         "has_downloads":true,
         "has_wiki":true,
         "has_pages":false,
         "forks_count":2,
         "mirror_url":null,
         "archived":false,
         "open_issues_count":0,
         "license":{
            "key":"mit",
            "name":"MIT License",
            "spdx_id":"MIT",
            "url":"https://api.github.com/licenses/mit"
         },
         "forks":2,
         "open_issues":0,
         "watchers":16,
         "default_branch":"master",
         "score":21.995148
      },
      {
         "id":50393269,
         "name":"Tetris",
         "full_name":"agelessman/Tetris",
         "owner":{
            "login":"agelessman",
            "id":9589295,
            "avatar_url":"https://avatars0.githubusercontent.com/u/9589295?v=4",
            "gravatar_id":"",
            "url":"https://api.github.com/users/agelessman",
            "html_url":"https://github.com/agelessman",
            "followers_url":"https://api.github.com/users/agelessman/followers",
            "following_url":"https://api.github.com/users/agelessman/following{/other_user}",
            "gists_url":"https://api.github.com/users/agelessman/gists{/gist_id}",
            "starred_url":"https://api.github.com/users/agelessman/starred{/owner}{/repo}",
            "subscriptions_url":"https://api.github.com/users/agelessman/subscriptions",
            "organizations_url":"https://api.github.com/users/agelessman/orgs",
            "repos_url":"https://api.github.com/users/agelessman/repos",
            "events_url":"https://api.github.com/users/agelessman/events{/privacy}",
            "received_events_url":"https://api.github.com/users/agelessman/received_events",
            "type":"User",
            "site_admin":false
         },
         "private":false,
         "html_url":"https://github.com/agelessman/Tetris",
         "description":null,
         "fork":false,
         "url":"https://api.github.com/repos/agelessman/Tetris",
         "forks_url":"https://api.github.com/repos/agelessman/Tetris/forks",
         "keys_url":"https://api.github.com/repos/agelessman/Tetris/keys{/key_id}",
         "collaborators_url":"https://api.github.com/repos/agelessman/Tetris/collaborators{/collaborator}",
         "teams_url":"https://api.github.com/repos/agelessman/Tetris/teams",
         "hooks_url":"https://api.github.com/repos/agelessman/Tetris/hooks",
         "issue_events_url":"https://api.github.com/repos/agelessman/Tetris/issues/events{/number}",
         "events_url":"https://api.github.com/repos/agelessman/Tetris/events",
         "assignees_url":"https://api.github.com/repos/agelessman/Tetris/assignees{/user}",
         "branches_url":"https://api.github.com/repos/agelessman/Tetris/branches{/branch}",
         "tags_url":"https://api.github.com/repos/agelessman/Tetris/tags",
         "blobs_url":"https://api.github.com/repos/agelessman/Tetris/git/blobs{/sha}",
         "git_tags_url":"https://api.github.com/repos/agelessman/Tetris/git/tags{/sha}",
         "git_refs_url":"https://api.github.com/repos/agelessman/Tetris/git/refs{/sha}",
         "trees_url":"https://api.github.com/repos/agelessman/Tetris/git/trees{/sha}",
         "statuses_url":"https://api.github.com/repos/agelessman/Tetris/statuses/{sha}",
         "languages_url":"https://api.github.com/repos/agelessman/Tetris/languages",
         "stargazers_url":"https://api.github.com/repos/agelessman/Tetris/stargazers",
         "contributors_url":"https://api.github.com/repos/agelessman/Tetris/contributors",
         "subscribers_url":"https://api.github.com/repos/agelessman/Tetris/subscribers",
         "subscription_url":"https://api.github.com/repos/agelessman/Tetris/subscription",
         "commits_url":"https://api.github.com/repos/agelessman/Tetris/commits{/sha}",
         "git_commits_url":"https://api.github.com/repos/agelessman/Tetris/git/commits{/sha}",
         "comments_url":"https://api.github.com/repos/agelessman/Tetris/comments{/number}",
         "issue_comment_url":"https://api.github.com/repos/agelessman/Tetris/issues/comments{/number}",
         "contents_url":"https://api.github.com/repos/agelessman/Tetris/contents/{+path}",
         "compare_url":"https://api.github.com/repos/agelessman/Tetris/compare/{base}...{head}",
         "merges_url":"https://api.github.com/repos/agelessman/Tetris/merges",
         "archive_url":"https://api.github.com/repos/agelessman/Tetris/{archive_format}{/ref}",
         "downloads_url":"https://api.github.com/repos/agelessman/Tetris/downloads",
         "issues_url":"https://api.github.com/repos/agelessman/Tetris/issues{/number}",
         "pulls_url":"https://api.github.com/repos/agelessman/Tetris/pulls{/number}",
         "milestones_url":"https://api.github.com/repos/agelessman/Tetris/milestones{/number}",
         "notifications_url":"https://api.github.com/repos/agelessman/Tetris/notifications{?since,all,participating}",
         "labels_url":"https://api.github.com/repos/agelessman/Tetris/labels{/name}",
         "releases_url":"https://api.github.com/repos/agelessman/Tetris/releases{/id}",
         "deployments_url":"https://api.github.com/repos/agelessman/Tetris/deployments",
         "created_at":"2016-01-26T01:15:45Z",
         "updated_at":"2017-08-07T03:42:18Z",
         "pushed_at":"2016-01-26T01:20:31Z",
         "git_url":"git://github.com/agelessman/Tetris.git",
         "ssh_url":"git@github.com:agelessman/Tetris.git",
         "clone_url":"https://github.com/agelessman/Tetris.git",
         "svn_url":"https://github.com/agelessman/Tetris",
         "homepage":null,
         "size":484,
         "stargazers_count":9,
         "watchers_count":9,
         "language":"Swift",
         "has_issues":true,
         "has_projects":true,
         "has_downloads":true,
         "has_wiki":true,
         "has_pages":false,
         "forks_count":2,
         "mirror_url":null,
         "archived":false,
         "open_issues_count":0,
         "license":null,
         "forks":2,
         "open_issues":0,
         "watchers":9,
         "default_branch":"master",
         "score":29.709883
      },
      {
         "id":36232215,
         "name":"SKTetrisGame",
         "full_name":"techsd-repo/SKTetrisGame",
         "owner":{
            "login":"techsd-repo",
            "id":6272534,
            "avatar_url":"https://avatars0.githubusercontent.com/u/6272534?v=4",
            "gravatar_id":"",
            "url":"https://api.github.com/users/techsd-repo",
            "html_url":"https://github.com/techsd-repo",
            "followers_url":"https://api.github.com/users/techsd-repo/followers",
            "following_url":"https://api.github.com/users/techsd-repo/following{/other_user}",
            "gists_url":"https://api.github.com/users/techsd-repo/gists{/gist_id}",
            "starred_url":"https://api.github.com/users/techsd-repo/starred{/owner}{/repo}",
            "subscriptions_url":"https://api.github.com/users/techsd-repo/subscriptions",
            "organizations_url":"https://api.github.com/users/techsd-repo/orgs",
            "repos_url":"https://api.github.com/users/techsd-repo/repos",
            "events_url":"https://api.github.com/users/techsd-repo/events{/privacy}",
            "received_events_url":"https://api.github.com/users/techsd-repo/received_events",
            "type":"User",
            "site_admin":false
         },
         "private":false,
         "html_url":"https://github.com/techsd-repo/SKTetrisGame",
         "description":"A Tetris game created for iOS, using Apple's SpriteKit",
         "fork":false,
         "url":"https://api.github.com/repos/techsd-repo/SKTetrisGame",
         "forks_url":"https://api.github.com/repos/techsd-repo/SKTetrisGame/forks",
         "keys_url":"https://api.github.com/repos/techsd-repo/SKTetrisGame/keys{/key_id}",
         "collaborators_url":"https://api.github.com/repos/techsd-repo/SKTetrisGame/collaborators{/collaborator}",
         "teams_url":"https://api.github.com/repos/techsd-repo/SKTetrisGame/teams",
         "hooks_url":"https://api.github.com/repos/techsd-repo/SKTetrisGame/hooks",
         "issue_events_url":"https://api.github.com/repos/techsd-repo/SKTetrisGame/issues/events{/number}",
         "events_url":"https://api.github.com/repos/techsd-repo/SKTetrisGame/events",
         "assignees_url":"https://api.github.com/repos/techsd-repo/SKTetrisGame/assignees{/user}",
         "branches_url":"https://api.github.com/repos/techsd-repo/SKTetrisGame/branches{/branch}",
         "tags_url":"https://api.github.com/repos/techsd-repo/SKTetrisGame/tags",
         "blobs_url":"https://api.github.com/repos/techsd-repo/SKTetrisGame/git/blobs{/sha}",
         "git_tags_url":"https://api.github.com/repos/techsd-repo/SKTetrisGame/git/tags{/sha}",
         "git_refs_url":"https://api.github.com/repos/techsd-repo/SKTetrisGame/git/refs{/sha}",
         "trees_url":"https://api.github.com/repos/techsd-repo/SKTetrisGame/git/trees{/sha}",
         "statuses_url":"https://api.github.com/repos/techsd-repo/SKTetrisGame/statuses/{sha}",
         "languages_url":"https://api.github.com/repos/techsd-repo/SKTetrisGame/languages",
         "stargazers_url":"https://api.github.com/repos/techsd-repo/SKTetrisGame/stargazers",
         "contributors_url":"https://api.github.com/repos/techsd-repo/SKTetrisGame/contributors",
         "subscribers_url":"https://api.github.com/repos/techsd-repo/SKTetrisGame/subscribers",
         "subscription_url":"https://api.github.com/repos/techsd-repo/SKTetrisGame/subscription",
         "commits_url":"https://api.github.com/repos/techsd-repo/SKTetrisGame/commits{/sha}",
         "git_commits_url":"https://api.github.com/repos/techsd-repo/SKTetrisGame/git/commits{/sha}",
         "comments_url":"https://api.github.com/repos/techsd-repo/SKTetrisGame/comments{/number}",
         "issue_comment_url":"https://api.github.com/repos/techsd-repo/SKTetrisGame/issues/comments{/number}",
         "contents_url":"https://api.github.com/repos/techsd-repo/SKTetrisGame/contents/{+path}",
         "compare_url":"https://api.github.com/repos/techsd-repo/SKTetrisGame/compare/{base}...{head}",
         "merges_url":"https://api.github.com/repos/techsd-repo/SKTetrisGame/merges",
         "archive_url":"https://api.github.com/repos/techsd-repo/SKTetrisGame/{archive_format}{/ref}",
         "downloads_url":"https://api.github.com/repos/techsd-repo/SKTetrisGame/downloads",
         "issues_url":"https://api.github.com/repos/techsd-repo/SKTetrisGame/issues{/number}",
         "pulls_url":"https://api.github.com/repos/techsd-repo/SKTetrisGame/pulls{/number}",
         "milestones_url":"https://api.github.com/repos/techsd-repo/SKTetrisGame/milestones{/number}",
         "notifications_url":"https://api.github.com/repos/techsd-repo/SKTetrisGame/notifications{?since,all,participating}",
         "labels_url":"https://api.github.com/repos/techsd-repo/SKTetrisGame/labels{/name}",
         "releases_url":"https://api.github.com/repos/techsd-repo/SKTetrisGame/releases{/id}",
         "deployments_url":"https://api.github.com/repos/techsd-repo/SKTetrisGame/deployments",
         "created_at":"2015-05-25T13:14:59Z",
         "updated_at":"2018-04-02T16:49:15Z",
         "pushed_at":"2015-07-06T16:18:33Z",
         "git_url":"git://github.com/techsd-repo/SKTetrisGame.git",
         "ssh_url":"git@github.com:techsd-repo/SKTetrisGame.git",
         "clone_url":"https://github.com/techsd-repo/SKTetrisGame.git",
         "svn_url":"https://github.com/techsd-repo/SKTetrisGame",
         "homepage":null,
         "size":4852,
         "stargazers_count":7,
         "watchers_count":7,
         "language":"Swift",
         "has_issues":true,
         "has_projects":true,
         "has_downloads":true,
         "has_wiki":true,
         "has_pages":true,
         "forks_count":1,
         "mirror_url":null,
         "archived":false,
         "open_issues_count":1,
         "license":null,
         "forks":1,
         "open_issues":1,
         "watchers":7,
         "default_branch":"master",
         "score":21.10181
      },
      {
         "id":28545331,
         "name":"Tetris",
         "full_name":"iluuu1994/Tetris",
         "owner":{
            "login":"iluuu1994",
            "id":1752683,
            "avatar_url":"https://avatars3.githubusercontent.com/u/1752683?v=4",
            "gravatar_id":"",
            "url":"https://api.github.com/users/iluuu1994",
            "html_url":"https://github.com/iluuu1994",
            "followers_url":"https://api.github.com/users/iluuu1994/followers",
            "following_url":"https://api.github.com/users/iluuu1994/following{/other_user}",
            "gists_url":"https://api.github.com/users/iluuu1994/gists{/gist_id}",
            "starred_url":"https://api.github.com/users/iluuu1994/starred{/owner}{/repo}",
            "subscriptions_url":"https://api.github.com/users/iluuu1994/subscriptions",
            "organizations_url":"https://api.github.com/users/iluuu1994/orgs",
            "repos_url":"https://api.github.com/users/iluuu1994/repos",
            "events_url":"https://api.github.com/users/iluuu1994/events{/privacy}",
            "received_events_url":"https://api.github.com/users/iluuu1994/received_events",
            "type":"User",
            "site_admin":false
         },
         "private":false,
         "html_url":"https://github.com/iluuu1994/Tetris",
         "description":"A simple Tetris game written in Swift",
         "fork":false,
         "url":"https://api.github.com/repos/iluuu1994/Tetris",
         "forks_url":"https://api.github.com/repos/iluuu1994/Tetris/forks",
         "keys_url":"https://api.github.com/repos/iluuu1994/Tetris/keys{/key_id}",
         "collaborators_url":"https://api.github.com/repos/iluuu1994/Tetris/collaborators{/collaborator}",
         "teams_url":"https://api.github.com/repos/iluuu1994/Tetris/teams",
         "hooks_url":"https://api.github.com/repos/iluuu1994/Tetris/hooks",
         "issue_events_url":"https://api.github.com/repos/iluuu1994/Tetris/issues/events{/number}",
         "events_url":"https://api.github.com/repos/iluuu1994/Tetris/events",
         "assignees_url":"https://api.github.com/repos/iluuu1994/Tetris/assignees{/user}",
         "branches_url":"https://api.github.com/repos/iluuu1994/Tetris/branches{/branch}",
         "tags_url":"https://api.github.com/repos/iluuu1994/Tetris/tags",
         "blobs_url":"https://api.github.com/repos/iluuu1994/Tetris/git/blobs{/sha}",
         "git_tags_url":"https://api.github.com/repos/iluuu1994/Tetris/git/tags{/sha}",
         "git_refs_url":"https://api.github.com/repos/iluuu1994/Tetris/git/refs{/sha}",
         "trees_url":"https://api.github.com/repos/iluuu1994/Tetris/git/trees{/sha}",
         "statuses_url":"https://api.github.com/repos/iluuu1994/Tetris/statuses/{sha}",
         "languages_url":"https://api.github.com/repos/iluuu1994/Tetris/languages",
         "stargazers_url":"https://api.github.com/repos/iluuu1994/Tetris/stargazers",
         "contributors_url":"https://api.github.com/repos/iluuu1994/Tetris/contributors",
         "subscribers_url":"https://api.github.com/repos/iluuu1994/Tetris/subscribers",
         "subscription_url":"https://api.github.com/repos/iluuu1994/Tetris/subscription",
         "commits_url":"https://api.github.com/repos/iluuu1994/Tetris/commits{/sha}",
         "git_commits_url":"https://api.github.com/repos/iluuu1994/Tetris/git/commits{/sha}",
         "comments_url":"https://api.github.com/repos/iluuu1994/Tetris/comments{/number}",
         "issue_comment_url":"https://api.github.com/repos/iluuu1994/Tetris/issues/comments{/number}",
         "contents_url":"https://api.github.com/repos/iluuu1994/Tetris/contents/{+path}",
         "compare_url":"https://api.github.com/repos/iluuu1994/Tetris/compare/{base}...{head}",
         "merges_url":"https://api.github.com/repos/iluuu1994/Tetris/merges",
         "archive_url":"https://api.github.com/repos/iluuu1994/Tetris/{archive_format}{/ref}",
         "downloads_url":"https://api.github.com/repos/iluuu1994/Tetris/downloads",
         "issues_url":"https://api.github.com/repos/iluuu1994/Tetris/issues{/number}",
         "pulls_url":"https://api.github.com/repos/iluuu1994/Tetris/pulls{/number}",
         "milestones_url":"https://api.github.com/repos/iluuu1994/Tetris/milestones{/number}",
         "notifications_url":"https://api.github.com/repos/iluuu1994/Tetris/notifications{?since,all,participating}",
         "labels_url":"https://api.github.com/repos/iluuu1994/Tetris/labels{/name}",
         "releases_url":"https://api.github.com/repos/iluuu1994/Tetris/releases{/id}",
         "deployments_url":"https://api.github.com/repos/iluuu1994/Tetris/deployments",
         "created_at":"2014-12-27T20:12:46Z",
         "updated_at":"2018-01-23T19:21:39Z",
         "pushed_at":"2015-01-25T09:15:28Z",
         "git_url":"git://github.com/iluuu1994/Tetris.git",
         "ssh_url":"git@github.com:iluuu1994/Tetris.git",
         "clone_url":"https://github.com/iluuu1994/Tetris.git",
         "svn_url":"https://github.com/iluuu1994/Tetris",
         "homepage":null,
         "size":159,
         "stargazers_count":6,
         "watchers_count":6,
         "language":"Swift",
         "has_issues":true,
         "has_projects":true,
         "has_downloads":true,
         "has_wiki":true,
         "has_pages":false,
         "forks_count":0,
         "mirror_url":null,
         "archived":false,
         "open_issues_count":0,
         "license":{
            "key":"mit",
            "name":"MIT License",
            "spdx_id":"MIT",
            "url":"https://api.github.com/licenses/mit"
         },
         "forks":0,
         "open_issues":0,
         "watchers":6,
         "default_branch":"master",
         "score":22.293299
      },
      {
         "id":99531381,
         "name":"Tetris",
         "full_name":"hanjoes/Tetris",
         "owner":{
            "login":"hanjoes",
            "id":6398407,
            "avatar_url":"https://avatars2.githubusercontent.com/u/6398407?v=4",
            "gravatar_id":"",
            "url":"https://api.github.com/users/hanjoes",
            "html_url":"https://github.com/hanjoes",
            "followers_url":"https://api.github.com/users/hanjoes/followers",
            "following_url":"https://api.github.com/users/hanjoes/following{/other_user}",
            "gists_url":"https://api.github.com/users/hanjoes/gists{/gist_id}",
            "starred_url":"https://api.github.com/users/hanjoes/starred{/owner}{/repo}",
            "subscriptions_url":"https://api.github.com/users/hanjoes/subscriptions",
            "organizations_url":"https://api.github.com/users/hanjoes/orgs",
            "repos_url":"https://api.github.com/users/hanjoes/repos",
            "events_url":"https://api.github.com/users/hanjoes/events{/privacy}",
            "received_events_url":"https://api.github.com/users/hanjoes/received_events",
            "type":"User",
            "site_admin":false
         },
         "private":false,
         "html_url":"https://github.com/hanjoes/Tetris",
         "description":"Tetris game to playaround with SpriteKit.",
         "fork":false,
         "url":"https://api.github.com/repos/hanjoes/Tetris",
         "forks_url":"https://api.github.com/repos/hanjoes/Tetris/forks",
         "keys_url":"https://api.github.com/repos/hanjoes/Tetris/keys{/key_id}",
         "collaborators_url":"https://api.github.com/repos/hanjoes/Tetris/collaborators{/collaborator}",
         "teams_url":"https://api.github.com/repos/hanjoes/Tetris/teams",
         "hooks_url":"https://api.github.com/repos/hanjoes/Tetris/hooks",
         "issue_events_url":"https://api.github.com/repos/hanjoes/Tetris/issues/events{/number}",
         "events_url":"https://api.github.com/repos/hanjoes/Tetris/events",
         "assignees_url":"https://api.github.com/repos/hanjoes/Tetris/assignees{/user}",
         "branches_url":"https://api.github.com/repos/hanjoes/Tetris/branches{/branch}",
         "tags_url":"https://api.github.com/repos/hanjoes/Tetris/tags",
         "blobs_url":"https://api.github.com/repos/hanjoes/Tetris/git/blobs{/sha}",
         "git_tags_url":"https://api.github.com/repos/hanjoes/Tetris/git/tags{/sha}",
         "git_refs_url":"https://api.github.com/repos/hanjoes/Tetris/git/refs{/sha}",
         "trees_url":"https://api.github.com/repos/hanjoes/Tetris/git/trees{/sha}",
         "statuses_url":"https://api.github.com/repos/hanjoes/Tetris/statuses/{sha}",
         "languages_url":"https://api.github.com/repos/hanjoes/Tetris/languages",
         "stargazers_url":"https://api.github.com/repos/hanjoes/Tetris/stargazers",
         "contributors_url":"https://api.github.com/repos/hanjoes/Tetris/contributors",
         "subscribers_url":"https://api.github.com/repos/hanjoes/Tetris/subscribers",
         "subscription_url":"https://api.github.com/repos/hanjoes/Tetris/subscription",
         "commits_url":"https://api.github.com/repos/hanjoes/Tetris/commits{/sha}",
         "git_commits_url":"https://api.github.com/repos/hanjoes/Tetris/git/commits{/sha}",
         "comments_url":"https://api.github.com/repos/hanjoes/Tetris/comments{/number}",
         "issue_comment_url":"https://api.github.com/repos/hanjoes/Tetris/issues/comments{/number}",
         "contents_url":"https://api.github.com/repos/hanjoes/Tetris/contents/{+path}",
         "compare_url":"https://api.github.com/repos/hanjoes/Tetris/compare/{base}...{head}",
         "merges_url":"https://api.github.com/repos/hanjoes/Tetris/merges",
         "archive_url":"https://api.github.com/repos/hanjoes/Tetris/{archive_format}{/ref}",
         "downloads_url":"https://api.github.com/repos/hanjoes/Tetris/downloads",
         "issues_url":"https://api.github.com/repos/hanjoes/Tetris/issues{/number}",
         "pulls_url":"https://api.github.com/repos/hanjoes/Tetris/pulls{/number}",
         "milestones_url":"https://api.github.com/repos/hanjoes/Tetris/milestones{/number}",
         "notifications_url":"https://api.github.com/repos/hanjoes/Tetris/notifications{?since,all,participating}",
         "labels_url":"https://api.github.com/repos/hanjoes/Tetris/labels{/name}",
         "releases_url":"https://api.github.com/repos/hanjoes/Tetris/releases{/id}",
         "deployments_url":"https://api.github.com/repos/hanjoes/Tetris/deployments",
         "created_at":"2017-08-07T03:05:47Z",
         "updated_at":"2018-04-20T18:05:11Z",
         "pushed_at":"2017-10-14T05:59:53Z",
         "git_url":"git://github.com/hanjoes/Tetris.git",
         "ssh_url":"git@github.com:hanjoes/Tetris.git",
         "clone_url":"https://github.com/hanjoes/Tetris.git",
         "svn_url":"https://github.com/hanjoes/Tetris",
         "homepage":"",
         "size":12577,
         "stargazers_count":5,
         "watchers_count":5,
         "language":"Swift",
         "has_issues":true,
         "has_projects":true,
         "has_downloads":true,
         "has_wiki":true,
         "has_pages":false,
         "forks_count":2,
         "mirror_url":null,
         "archived":false,
         "open_issues_count":2,
         "license":null,
         "forks":2,
         "open_issues":2,
         "watchers":5,
         "default_branch":"master",
         "score":29.941788
      }
   ]
}
